{
  "type": "OrderedCollection",
  "totalItems": 267,
  "id": "http://remote.org/users/fuser2/following",
  "first": {
    "type": "OrderedCollectionPage",
    "totalItems": 267,
    "partOf": "http://remote.org/users/fuser2/following",
    "orderedItems": [],
    "next": "http://remote.org/users/fuser2/following?page=2",
    "id": "http://remote.org/users/fuser2/following?page=1"
  },
  "@context": [
    "https://www.w3.org/ns/activitystreams",
    "http://localhost:4001/schemas/litepub-0.1.jsonld",
    {
      "@language": "und"
    }
  ]
}
